{
	"info": {
		"_postman_id": "db33c740-c3a0-4d6a-9338-fd06b822cf66",
		"name": "Battleship",
		"schema": "https://schema.getpostman.com/json/collection/v2.1.0/collection.json"
	},
	"item": [
		{
			"name": "Create Board",
			"event": [
				{
					"listen": "test",
					"script": {
						"id": "2b53036d-ccda-4636-874c-c422c8351e92",
						"exec": [
							"",
							"pm.test(\"Status code is 200\", function () {",
							"    pm.response.to.have.status(200);",
							"    var battleship = JSON.parse(responseBody);",
							"    ",
							"    pm.environment.set(\"BOARD_ID\", battleship.id);",
							"});",
							"",
							""
						],
						"type": "text/javascript"
					}
				}
			],
			"request": {
				"method": "POST",
				"header": [],
				"url": {
					"raw": "{{BASE_URL}}/api/board",
					"host": [
						"{{BASE_URL}}"
					],
					"path": [
						"api",
						"board"
					]
				},
				"description": "Creates a new board. All existing data on the old board will be cleared"
			},
			"response": []
		},
		{
			"name": "Get Board",
			"request": {
				"method": "GET",
				"header": [],
				"url": {
					"raw": ""
				},
				"description": "Returns the current state of the board."
			},
			"response": []
		},
		{
			"name": "Add Battleship",
			"request": {
				"method": "POST",
				"header": [
					{
						"key": "Content-Type",
						"name": "Content-Type",
						"value": "application/json",
						"type": "text"
					}
				],
				"body": {
					"mode": "raw",
					"raw": "{\n  \"battleship\": {\n    \"size\": {\n      \"width\": 4,\n      \"height\": 5\n    }\n  },\n  \"point\": {\n    \"x\": 5, \n    \"y\": 5\n  }\n}"
				},
				"url": {
					"raw": "{{BASE_URL}}/api/board/{{BOARD_ID}}/battleships",
					"host": [
						"{{BASE_URL}}"
					],
					"path": [
						"api",
						"board",
						"{{BOARD_ID}}",
						"battleships"
					]
				},
				"description": "Adds a battleship to the board. \n\nNote: You cant add battleships that overlap the board or other battleships. An error 400 will be return in this case."
			},
			"response": []
		},
		{
			"name": "Attack",
			"request": {
				"method": "POST",
				"header": [
					{
						"key": "Content-Type",
						"name": "Content-Type",
						"type": "text",
						"value": "application/json"
					}
				],
				"body": {
					"mode": "raw",
					"raw": "{\n  \"x\": 5, \n  \"y\": 5\n}"
				},
				"url": {
					"raw": "{{BASE_URL}}/api/board/{{BOARD_ID}}/attack",
					"host": [
						"{{BASE_URL}}"
					],
					"path": [
						"api",
						"board",
						"{{BOARD_ID}}",
						"attack"
					]
				},
				"description": "Performs an attack at a point in the board.Returns true if a battleship exists at the point or false otherwise.\n\nNote: If a battleship exists at the given point, it takes damage on the first hit and returns true. Succeeding calls to attack will not result cause further damage and returns false."
			},
			"response": []
		}
	],
	"protocolProfileBehavior": {}
}